[gd_scene load_steps=4 format=2]

[ext_resource path="res://art/background.material" type="Material" id=1]

[sub_resource type="ArrayMesh" id=1]

[sub_resource type="GradientTexture" id=2]

[node name="viewport" type="CanvasLayer"]

[node name="background" type="ColorRect" parent="."]
material = ExtResource( 1 )
anchor_right = 1.0
anchor_bottom = 1.0
color = Color( 1, 0, 0, 1 )

[node name="mesh_instance_2d" type="MeshInstance2D" parent="."]
mesh = SubResource( 1 )
texture = SubResource( 2 )
